verilator/dump.vcd
$version Generated by VerilatedVcd $end
$timescale 1ps $end
 $scope module top $end
  $var wire 1 0 clk $end
  $var wire 1 1 rst_b $end
  $var wire 24 2 x [23:0] $end
  $var wire 1 3 x_dv $end
  $var wire 25 4 y [24:0] $end
  $var wire 1 5 y_dv $end
  $scope module $unit $end
   $var wire 32 > X_I [31:0] $end
   $var wire 32 ? X_F [31:0] $end
   $var wire 32 @ X_W [31:0] $end
   $var wire 32 A Y_I [31:0] $end
   $var wire 32 ? Y_F [31:0] $end
   $var wire 32 B Y_W [31:0] $end
   $var wire 32 > X1_I [31:0] $end
   $var wire 32 C X1_F [31:0] $end
   $var wire 32 D X1_W [31:0] $end
   $var wire 32 E X2_I [31:0] $end
   $var wire 32 F X2_J [31:0] $end
   $var wire 32 G X2_F [31:0] $end
   $var wire 32 G X2_W [31:0] $end
   $var wire 32 E SQ_I [31:0] $end
   $var wire 32 H SQ_F [31:0] $end
   $var wire 32 H SQ_W [31:0] $end
   $var wire 32 A A_I [31:0] $end
   $var wire 32 ? A_F [31:0] $end
   $var wire 32 B A_W [31:0] $end
   $var wire 32 I B_I [31:0] $end
   $var wire 32 J B_F [31:0] $end
   $var wire 32 K B_W [31:0] $end
   $var wire 32 A C_I [31:0] $end
   $var wire 32 L C_F [31:0] $end
   $var wire 32 M C_W [31:0] $end
   $var wire 32 N R_F [31:0] $end
   $var wire 32 A S_I [31:0] $end
   $var wire 32 O S_F [31:0] $end
   $var wire 32 P S_W [31:0] $end
   $var wire 32 A T0_I [31:0] $end
   $var wire 32 ? T0_F [31:0] $end
   $var wire 32 B T0_W [31:0] $end
   $var wire 32 I T1_I [31:0] $end
   $var wire 32 Q T1_F [31:0] $end
   $var wire 32 R T1_W [31:0] $end
   $var wire 32 A T2_I [31:0] $end
   $var wire 32 S T2_F [31:0] $end
   $var wire 32 T T2_W [31:0] $end
  $upscope $end
  $scope module quadra_top $end
   $var wire 1 0 clk $end
   $var wire 1 1 rst_b $end
   $var wire 24 2 x [23:0] $end
   $var wire 1 3 x_dv $end
   $var wire 25 4 y [24:0] $end
   $var wire 1 5 y_dv $end
   $var wire 1 - dv_p0 $end
   $var wire 1 . dv_p1 $end
   $var wire 1 / dv_p2 $end
   $var wire 25 " a [24:0] $end
   $var wire 19 # b [18:0] $end
   $var wire 13 $ c [12:0] $end
   $var wire 7 6 x1 [6:0] $end
   $var wire 17 7 x2 [16:0] $end
   $var wire 34 8 sq [33:0] $end
   $var wire 25 % y_quadra [24:0] $end
   $scope module u_lut $end
    $var wire 7 6 x1 [6:0] $end
    $var wire 25 " a [24:0] $end
    $var wire 19 # b [18:0] $end
    $var wire 13 $ c [12:0] $end
   $upscope $end
   $scope module u_quadra $end
    $var wire 17 7 x2 [16:0] $end
    $var wire 25 " a [24:0] $end
    $var wire 19 # b [18:0] $end
    $var wire 13 $ c [12:0] $end
    $var wire 34 8 sq [33:0] $end
    $var wire 25 % y [24:0] $end
    $var wire 25 " t0 [24:0] $end
    $var wire 36 : t1 [35:0] $end
    $var wire 47 < t2 [46:0] $end
    $var wire 29 & sum_wide [28:0] $end
    $var wire 29 ' sum_q23_floor [28:0] $end
    $var wire 1 ( sum_has_fraction $end
    $var wire 1 ) rnd_guard $end
    $var wire 1 * rnd_sticky $end
    $var wire 1 + rnd_lsb $end
    $var wire 1 , rnd_inc $end
   $upscope $end
   $scope module u_square $end
    $var wire 17 7 x2 [16:0] $end
    $var wire 34 8 sq [33:0] $end
   $upscope $end
  $upscope $end
 $upscope $end
$enddefinitions $end


#500
b1101001010111110110000110 "
b0010110101000001100 #
b0101100111001 $
b1101001010111110110000110 %
b11010010101111101100001100000 &
b11111101001010111110110000110 '
0(
0)
0*
0+
0,
1-
0.
0/
00
11
b000000000000000000000000 2
03
b1101001010111110110000110 4
05
b0000000 6
b00000000000000000 7
b0000000000000000000000000000000000 8
b000000000000000000000000000000000000 :
b00000000000000000000000000000000000000000000000 <
b00000000000000000000000000000001 >
b00000000000000000000000000010111 ?
b00000000000000000000000000011000 @
b00000000000000000000000000000010 A
b00000000000000000000000000011001 B
b00000000000000000000000000000110 C
b00000000000000000000000000000111 D
b00000000000000000000000000000000 E
b11111111111111111111111111111010 F
b00000000000000000000000000010001 G
b00000000000000000000000000100010 H
b00000000000000000000000000000011 I
b00000000000000000000000000010000 J
b00000000000000000000000000010011 K
b00000000000000000000000000001011 L
b00000000000000000000000000001101 M
b00000000000000000000000000000100 N
b00000000000000000000000000011011 O
b00000000000000000000000000011101 P
b00000000000000000000000000100001 Q
b00000000000000000000000000100100 R
b00000000000000000000000000101101 S
b00000000000000000000000000101111 T
#1000
0-
1.
10
#1500
00
01
#2000
0.
10
#2500
00
11
#3000
10
#3500
00
#4000
10
#4500
00
#5000
10
#5500
00
#6000
10
#6500
00
#7000
10
#7500
00
#8000
10
#8500
00
#9000
10
#9500
00
#10000
10
#10500
00
#11000
10
#11500
00
#12000
10
#12500
00
#13000
10
#13500
00
#14000
10
#14500
00
#15000
10
#15500
b1111110101010100000001000 "
b1100000000001101111 #
b0000011001011 $
b1111101101010100111010010 %
b11111011010101001110100001110 &
b11111111101101010100111010000 '
1(
1)
1*
1,
00
b111111111111111111110000 2
13
b1111101101010100111010010 4
b1111111 6
b11111111111110000 7
b1111111111110000000000000100000000 8
b110000000000111111011111100100010000 :
b00000110010101111001101010000001100101100000000 <
#16000
1-
10
#16500
b1111101101010100111010000 %
b11111011010101001110011101110 &
b11111111101101010100111001110 '
00
b111111111111111111110001 2
b1111101101010100111010000 4
b11111111111110001 7
b1111111111110001000000000011100001 8
b110000000000111110111111100101111111 :
b00000110010101111010000011011001011001001101011 <
#17000
1.
10
#17500
b1111101101010100111001110 %
b11111011010101001110011001110 &
b11111111101101010100111001100 '
00
b111111111111111111110010 2
b1111101101010100111001110 4
b11111111111110010 7
b1111111111110010000000000011000100 8
b110000000000111110011111100111101110 :
b00000110010101111010011100110001001101101101100 <
#18000
1/
10
15
#18500
b1111101101010100111001100 %
b11111011010101001110010101110 &
b11111111101101010100111001010 '
00
b111111111111111111110011 2
b1111101101010100111001100 4
b11111111111110011 7
b1111111111110011000000000010101001 8
b110000000000111101111111101001011101 :
b00000110010101111010110110001001000011000000011 <
#19000
10
#19500
b1111101101010100111001010 %
b11111011010101001110010001110 &
b11111111101101010100111001000 '
00
b111111111111111111110100 2
b1111101101010100111001010 4
b11111111111110100 7
b1111111111110100000000000010010000 8
b110000000000111101011111101011001100 :
b00000110010101111011001111100000111001000110000 <
#20000
10
#20500
b1111101101010100111001000 %
b11111011010101001110001101110 &
b11111111101101010100111000110 '
00
b111111111111111111110101 2
b1111101101010100111001000 4
b11111111111110101 7
b1111111111110101000000000001111001 8
b110000000000111100111111101100111011 :
b00000110010101111011101000111000101111111110011 <
#21000
10
#21500
b1111101101010100111000110 %
b11111011010101001110001001110 &
b11111111101101010100111000100 '
00
b111111111111111111110110 2
b1111101101010100111000110 4
b11111111111110110 7
b1111111111110110000000000001100100 8
b110000000000111100011111101110101010 :
b00000110010101111100000010010000100111101001100 <
#22000
10
#22500
b1111101101010100111000100 %
b11111011010101001110000101110 &
b11111111101101010100111000010 '
00
b111111111111111111110111 2
b1111101101010100111000100 4
b11111111111110111 7
b1111111111110111000000000001010001 8
b110000000000111011111111110000011001 :
b00000110010101111100011011101000100000000111011 <
#23000
10
#23500
b1111101101010100111000010 %
b11111011010101001110000001110 &
b11111111101101010100111000000 '
00
b111111111111111111111000 2
b1111101101010100111000010 4
b11111111111111000 7
b1111111111111000000000000001000000 8
b110000000000111011011111110010001000 :
b00000110010101111100110101000000011001011000000 <
#24000
10
#24500
b1111101101010100111000000 %
b11111011010101001101111101110 &
b11111111101101010100110111110 '
00
b111111111111111111111001 2
b1111101101010100111000000 4
b11111111111111001 7
b1111111111111001000000000000110001 8
b110000000000111010111111110011110111 :
b00000110010101111101001110011000010011011011011 <
#25000
10
#25500
b1111101101010100110111110 %
b11111011010101001101111001110 &
b11111111101101010100110111100 '
00
b111111111111111111111010 2
b1111101101010100110111110 4
b11111111111111010 7
b1111111111111010000000000000100100 8
b110000000000111010011111110101100110 :
b00000110010101111101100111110000001110010001100 <
#26000
10
#26500
b1111101101010100110111100 %
b11111011010101001101110101110 &
b11111111101101010100110111010 '
00
b111111111111111111111011 2
b1111101101010100110111100 4
b11111111111111011 7
b1111111111111011000000000000011001 8
b110000000000111001111111110111010101 :
b00000110010101111110000001001000001001111010011 <
#27000
10
#27500
b1111101101010100110111010 %
b11111011010101001101110001110 &
b11111111101101010100110111000 '
00
b111111111111111111111100 2
b1111101101010100110111010 4
b11111111111111100 7
b1111111111111100000000000000010000 8
b110000000000111001011111111001000100 :
b00000110010101111110011010100000000110010110000 <
#28000
10
#28500
b1111101101010100110111000 %
b11111011010101001101101101110 &
b11111111101101010100110110110 '
00
b111111111111111111111101 2
b1111101101010100110111000 4
b11111111111111101 7
b1111111111111101000000000000001001 8
b110000000000111000111111111010110011 :
b00000110010101111110110011111000000011100100011 <
#29000
10
#29500
b1111101101010100110110110 %
b11111011010101001101101001110 &
b11111111101101010100110110100 '
00
b111111111111111111111110 2
b1111101101010100110110110 4
b11111111111111110 7
b1111111111111110000000000000000100 8
b110000000000111000011111111100100010 :
b00000110010101111111001101010000000001100101100 <
#30000
10
#30500
b1111101101010100110110100 %
b11111011010101001101100101110 &
b11111111101101010100110110010 '
00
b111111111111111111111111 2
b1111101101010100110110100 4
b11111111111111111 7
b1111111111111111000000000000000001 8
b110000000000110111111111111110010001 :
b00000110010101111111100110101000000000011001011 <
#31000
10
#31500
b1101001010111110110000110 "
b0010110101000001100 #
b0101100111001 $
b1101001010111110110000110 %
b11010010101111101100001100000 &
b11111101001010111110110000110 '
0(
0)
0*
0,
00
b000000000000000000000000 2
03
b1101001010111110110000110 4
b0000000 6
b00000000000000000 7
b0000000000000000000000000000000000 8
b000000000000000000000000000000000000 :
b00000000000000000000000000000000000000000000000 <
#32000
0-
10
#32500
00
#33000
0.
10
#33500
00
#34000
0/
10
05
