verilator/dump.vcd
$version Generated by VerilatedVcd $end
$timescale 1ps $end
 $scope module top $end
  $var wire 1 ( clk $end
  $var wire 1 ) rst_b $end
  $var wire 24 * x [23:0] $end
  $var wire 1 + x_dv $end
  $var wire 25 , y [24:0] $end
  $var wire 1 - y_dv $end
  $scope module $unit $end
   $var wire 32 9 X_I [31:0] $end
   $var wire 32 : X_F [31:0] $end
   $var wire 32 ; X_W [31:0] $end
   $var wire 32 < Y_I [31:0] $end
   $var wire 32 : Y_F [31:0] $end
   $var wire 32 = Y_W [31:0] $end
   $var wire 32 9 X1_I [31:0] $end
   $var wire 32 > X1_F [31:0] $end
   $var wire 32 ? X1_W [31:0] $end
   $var wire 32 @ X2_I [31:0] $end
   $var wire 32 A X2_J [31:0] $end
   $var wire 32 B X2_F [31:0] $end
   $var wire 32 B X2_W [31:0] $end
   $var wire 32 @ SQ_I [31:0] $end
   $var wire 32 C SQ_F [31:0] $end
   $var wire 32 C SQ_W [31:0] $end
   $var wire 32 < A_I [31:0] $end
   $var wire 32 : A_F [31:0] $end
   $var wire 32 = A_W [31:0] $end
   $var wire 32 D B_I [31:0] $end
   $var wire 32 E B_F [31:0] $end
   $var wire 32 F B_W [31:0] $end
   $var wire 32 < C_I [31:0] $end
   $var wire 32 G C_F [31:0] $end
   $var wire 32 H C_W [31:0] $end
   $var wire 32 I R_F [31:0] $end
   $var wire 32 < S_I [31:0] $end
   $var wire 32 J S_F [31:0] $end
   $var wire 32 K S_W [31:0] $end
   $var wire 32 < T0_I [31:0] $end
   $var wire 32 : T0_F [31:0] $end
   $var wire 32 = T0_W [31:0] $end
   $var wire 32 D T1_I [31:0] $end
   $var wire 32 L T1_F [31:0] $end
   $var wire 32 M T1_W [31:0] $end
   $var wire 32 < T2_I [31:0] $end
   $var wire 32 N T2_F [31:0] $end
   $var wire 32 O T2_W [31:0] $end
  $upscope $end
  $scope module quadra_top $end
   $var wire 1 ( clk $end
   $var wire 1 ) rst_b $end
   $var wire 24 * x [23:0] $end
   $var wire 1 + x_dv $end
   $var wire 25 , y [24:0] $end
   $var wire 1 - y_dv $end
   $var wire 1 % dv_p0 $end
   $var wire 1 & dv_p1 $end
   $var wire 1 ' dv_p2 $end
   $var wire 25 " a [24:0] $end
   $var wire 19 # b [18:0] $end
   $var wire 13 $ c [12:0] $end
   $var wire 7 . x1 [6:0] $end
   $var wire 17 / x2 [16:0] $end
   $var wire 34 0 sq [33:0] $end
   $var wire 25 2 y_quadra [24:0] $end
   $scope module u_lut $end
    $var wire 7 . x1 [6:0] $end
    $var wire 25 " a [24:0] $end
    $var wire 19 # b [18:0] $end
    $var wire 13 $ c [12:0] $end
   $upscope $end
   $scope module u_quadra $end
    $var wire 17 / x2 [16:0] $end
    $var wire 25 " a [24:0] $end
    $var wire 19 # b [18:0] $end
    $var wire 13 $ c [12:0] $end
    $var wire 34 0 sq [33:0] $end
    $var wire 25 2 y [24:0] $end
    $var wire 25 " t0 [24:0] $end
    $var wire 36 3 t1 [35:0] $end
    $var wire 47 5 t2 [46:0] $end
    $var wire 25 " a_aligned [24:0] $end
    $var wire 25 7 t1_aligned [24:0] $end
    $var wire 25 8 t2_aligned [24:0] $end
   $upscope $end
   $scope module u_square $end
    $var wire 17 / x2 [16:0] $end
    $var wire 34 0 sq [33:0] $end
   $upscope $end
  $upscope $end
 $upscope $end
$enddefinitions $end


#500
b1101001010111110110000110 "
b0010110101000001001 #
b0101101010000 $
1%
0&
0'
0(
1)
b000000000000000000000000 *
0+
b1101001010111110110000110 ,
0-
b0000000 .
b00000000000000000 /
b0000000000000000000000000000000000 0
b1101001010111110110000110 2
b000000000000000000000000000000000000 3
b00000000000000000000000000000000000000000000000 5
b0000000000000000000000000 7
b0000000000000000000000000 8
b00000000000000000000000000000001 9
b00000000000000000000000000010111 :
b00000000000000000000000000011000 ;
b00000000000000000000000000000010 <
b00000000000000000000000000011001 =
b00000000000000000000000000000110 >
b00000000000000000000000000000111 ?
b00000000000000000000000000000000 @
b11111111111111111111111111111010 A
b00000000000000000000000000010001 B
b00000000000000000000000000100010 C
b00000000000000000000000000000011 D
b00000000000000000000000000010000 E
b00000000000000000000000000010011 F
b00000000000000000000000000001011 G
b00000000000000000000000000001101 H
b00000000000000000000000000000100 I
b00000000000000000000000000011011 J
b00000000000000000000000000011101 K
b00000000000000000000000000100001 L
b00000000000000000000000000100100 M
b00000000000000000000000000101101 N
b00000000000000000000000000101111 O
#1000
0%
1&
1(
#1500
0(
0)
#2000
0&
1(
#2500
0(
1)
#3000
1(
#3500
0(
#4000
1(
#4500
0(
#5000
1(
#5500
0(
#6000
1(
#6500
0(
#7000
1(
#7500
0(
#8000
1(
#8500
0(
#9000
1(
#9500
0(
#10000
1(
#10500
0(
#11000
1(
#11500
0(
#12000
1(
#12500
0(
#13000
1(
#13500
0(
#14000
1(
#14500
0(
#15000
1(
#15500
b1111110101010100000001000 "
b1100000000001110010 #
b0000010101010 $
0(
b111111111111111111110000 *
1+
b1111101101010100110110100 ,
b1111111 .
b11111111111110000 /
b1111111111110000000000000100000000 0
b1111101101010100110110100 2
b110000000001000000111111100011100000 3
b00000101010011111010101100000001010101000000000 5
b1111111000000000100000011 7
b0000000000000000010101001 8
#16000
1%
1(
#16500
0(
b111111111111111111110001 *
b1111101101010100110110010 ,
b11111111111110001 /
b1111111111110001000000000011100001 0
b1111101101010100110110010 2
b110000000001000000011111100101010010 3
b00000101010011111011000001010001001010101101010 5
b1111111000000000100000001 7
#17000
1&
1(
#17500
0(
b111111111111111111110010 *
b1111101101010100110110000 ,
b11111111111110010 /
b1111111111110010000000000011000100 0
b1111101101010100110110000 2
b110000000000111111111111100111000100 3
b00000101010011111011010110100001000001000101000 5
b1111111000000000011111111 7
#18000
1'
1(
1-
#18500
0(
b111111111111111111110011 *
b1111101101010100110101110 ,
b11111111111110011 /
b1111111111110011000000000010101001 0
b1111101101010100110101110 2
b110000000000111111011111101000110110 3
b00000101010011111011101011110000111000000111010 5
b1111111000000000011111101 7
#19000
1(
#19500
0(
b111111111111111111110100 *
b1111101101010100110101100 ,
b11111111111110100 /
b1111111111110100000000000010010000 0
b1111101101010100110101100 2
b110000000000111110111111101010101000 3
b00000101010011111100000001000000101111110100000 5
b1111111000000000011111011 7
#20000
1(
#20500
0(
b111111111111111111110101 *
b1111101101010100110101010 ,
b11111111111110101 /
b1111111111110101000000000001111001 0
b1111101101010100110101010 2
b110000000000111110011111101100011010 3
b00000101010011111100010110010000101000001011010 5
b1111111000000000011111001 7
#21000
1(
#21500
0(
b111111111111111111110110 *
b1111101101010100110101000 ,
b11111111111110110 /
b1111111111110110000000000001100100 0
b1111101101010100110101000 2
b110000000000111101111111101110001100 3
b00000101010011111100101011100000100001001101000 5
b1111111000000000011110111 7
#22000
1(
#22500
0(
b111111111111111111110111 *
b1111101101010100110100110 ,
b11111111111110111 /
b1111111111110111000000000001010001 0
b1111101101010100110100110 2
b110000000000111101011111101111111110 3
b00000101010011111101000000110000011010111001010 5
b1111111000000000011110101 7
#23000
1(
#23500
0(
b111111111111111111111000 *
b1111101101010100110100100 ,
b11111111111111000 /
b1111111111111000000000000001000000 0
b1111101101010100110100100 2
b110000000000111100111111110001110000 3
b00000101010011111101010110000000010101010000000 5
b1111111000000000011110011 7
#24000
1(
#24500
0(
b111111111111111111111001 *
b1111101101010100110100010 ,
b11111111111111001 /
b1111111111111001000000000000110001 0
b1111101101010100110100010 2
b110000000000111100011111110011100010 3
b00000101010011111101101011010000010000010001010 5
b1111111000000000011110001 7
#25000
1(
#25500
0(
b111111111111111111111010 *
b1111101101010100110100000 ,
b11111111111111010 /
b1111111111111010000000000000100100 0
b1111101101010100110100000 2
b110000000000111011111111110101010100 3
b00000101010011111110000000100000001011111101000 5
b1111111000000000011101111 7
#26000
1(
#26500
0(
b111111111111111111111011 *
b1111101101010100110011110 ,
b11111111111111011 /
b1111111111111011000000000000011001 0
b1111101101010100110011110 2
b110000000000111011011111110111000110 3
b00000101010011111110010101110000001000010011010 5
b1111111000000000011101101 7
#27000
1(
#27500
0(
b111111111111111111111100 *
b1111101101010100110011100 ,
b11111111111111100 /
b1111111111111100000000000000010000 0
b1111101101010100110011100 2
b110000000000111010111111111000111000 3
b00000101010011111110101011000000000101010100000 5
b1111111000000000011101011 7
#28000
1(
#28500
0(
b111111111111111111111101 *
b1111101101010100110011010 ,
b11111111111111101 /
b1111111111111101000000000000001001 0
b1111101101010100110011010 2
b110000000000111010011111111010101010 3
b00000101010011111111000000010000000010111111010 5
b1111111000000000011101001 7
#29000
1(
#29500
0(
b111111111111111111111110 *
b1111101101010100110011000 ,
b11111111111111110 /
b1111111111111110000000000000000100 0
b1111101101010100110011000 2
b110000000000111001111111111100011100 3
b00000101010011111111010101100000000001010101000 5
b1111111000000000011100111 7
#30000
1(
#30500
0(
b111111111111111111111111 *
b1111101101010100110010110 ,
b11111111111111111 /
b1111111111111111000000000000000001 0
b1111101101010100110010110 2
b110000000000111001011111111110001110 3
b00000101010011111111101010110000000000010101010 5
b1111111000000000011100101 7
#31000
1(
#31500
b1101001010111110110000110 "
b0010110101000001001 #
b0101101010000 $
0(
b000000000000000000000000 *
0+
b1101001010111110110000110 ,
b0000000 .
b00000000000000000 /
b0000000000000000000000000000000000 0
b1101001010111110110000110 2
b000000000000000000000000000000000000 3
b00000000000000000000000000000000000000000000000 5
b0000000000000000000000000 7
b0000000000000000000000000 8
#32000
0%
1(
#32500
0(
#33000
0&
1(
#33500
0(
#34000
0'
1(
0-
