verilator/dump.vcd
$version Generated by VerilatedVcd $end
$timescale 1ps $end
 $scope module top $end
  $var wire 1 ( clk $end
  $var wire 1 ) rst_b $end
  $var wire 24 * x [23:0] $end
  $var wire 1 + x_dv $end
  $var wire 25 , y [24:0] $end
  $var wire 1 - y_dv $end
  $scope module $unit $end
   $var wire 32 9 X_I [31:0] $end
   $var wire 32 : X_F [31:0] $end
   $var wire 32 ; X_W [31:0] $end
   $var wire 32 < Y_I [31:0] $end
   $var wire 32 : Y_F [31:0] $end
   $var wire 32 = Y_W [31:0] $end
   $var wire 32 9 X1_I [31:0] $end
   $var wire 32 > X1_F [31:0] $end
   $var wire 32 ? X1_W [31:0] $end
   $var wire 32 @ X2_I [31:0] $end
   $var wire 32 A X2_J [31:0] $end
   $var wire 32 B X2_F [31:0] $end
   $var wire 32 B X2_W [31:0] $end
   $var wire 32 @ SQ_I [31:0] $end
   $var wire 32 C SQ_F [31:0] $end
   $var wire 32 C SQ_W [31:0] $end
   $var wire 32 < A_I [31:0] $end
   $var wire 32 : A_F [31:0] $end
   $var wire 32 = A_W [31:0] $end
   $var wire 32 D B_I [31:0] $end
   $var wire 32 E B_F [31:0] $end
   $var wire 32 F B_W [31:0] $end
   $var wire 32 < C_I [31:0] $end
   $var wire 32 G C_F [31:0] $end
   $var wire 32 H C_W [31:0] $end
   $var wire 32 I R_F [31:0] $end
   $var wire 32 < S_I [31:0] $end
   $var wire 32 J S_F [31:0] $end
   $var wire 32 K S_W [31:0] $end
   $var wire 32 < T0_I [31:0] $end
   $var wire 32 : T0_F [31:0] $end
   $var wire 32 = T0_W [31:0] $end
   $var wire 32 D T1_I [31:0] $end
   $var wire 32 L T1_F [31:0] $end
   $var wire 32 M T1_W [31:0] $end
   $var wire 32 < T2_I [31:0] $end
   $var wire 32 N T2_F [31:0] $end
   $var wire 32 O T2_W [31:0] $end
  $upscope $end
  $scope module quadra_top $end
   $var wire 1 ( clk $end
   $var wire 1 ) rst_b $end
   $var wire 24 * x [23:0] $end
   $var wire 1 + x_dv $end
   $var wire 25 , y [24:0] $end
   $var wire 1 - y_dv $end
   $var wire 1 % dv_p0 $end
   $var wire 1 & dv_p1 $end
   $var wire 1 ' dv_p2 $end
   $var wire 25 " a [24:0] $end
   $var wire 19 # b [18:0] $end
   $var wire 13 $ c [12:0] $end
   $var wire 7 . x1 [6:0] $end
   $var wire 17 / x2 [16:0] $end
   $var wire 34 0 sq [33:0] $end
   $var wire 25 2 y_quadra [24:0] $end
   $scope module u_lut $end
    $var wire 7 . x1 [6:0] $end
    $var wire 25 " a [24:0] $end
    $var wire 19 # b [18:0] $end
    $var wire 13 $ c [12:0] $end
   $upscope $end
   $scope module u_quadra $end
    $var wire 17 / x2 [16:0] $end
    $var wire 25 " a [24:0] $end
    $var wire 19 # b [18:0] $end
    $var wire 13 $ c [12:0] $end
    $var wire 34 0 sq [33:0] $end
    $var wire 25 2 y [24:0] $end
    $var wire 25 " t0 [24:0] $end
    $var wire 36 3 t1 [35:0] $end
    $var wire 47 5 t2 [46:0] $end
    $var wire 29 7 sum_s [28:0] $end
    $var wire 29 8 sum_s_rounded [28:0] $end
   $upscope $end
   $scope module u_square $end
    $var wire 17 / x2 [16:0] $end
    $var wire 34 0 sq [33:0] $end
   $upscope $end
  $upscope $end
 $upscope $end
$enddefinitions $end


#500
b1101001010111110110000110 "
b0010110101000001100 #
b0101100111001 $
1%
0&
0'
0(
1)
b000000000000000000000000 *
0+
b1101001010111110110000110 ,
0-
b0000000 .
b00000000000000000 /
b0000000000000000000000000000000000 0
b1101001010111110110000110 2
b000000000000000000000000000000000000 3
b00000000000000000000000000000000000000000000000 5
b11010010101111101100001100000 7
b11010010101111101100001101000 8
b00000000000000000000000000000001 9
b00000000000000000000000000010111 :
b00000000000000000000000000011000 ;
b00000000000000000000000000000010 <
b00000000000000000000000000011001 =
b00000000000000000000000000000110 >
b00000000000000000000000000000111 ?
b00000000000000000000000000000000 @
b11111111111111111111111111111010 A
b00000000000000000000000000010001 B
b00000000000000000000000000100010 C
b00000000000000000000000000000011 D
b00000000000000000000000000010000 E
b00000000000000000000000000010011 F
b00000000000000000000000000001011 G
b00000000000000000000000000001101 H
b00000000000000000000000000000100 I
b00000000000000000000000000011011 J
b00000000000000000000000000011101 K
b00000000000000000000000000100001 L
b00000000000000000000000000100100 M
b00000000000000000000000000101101 N
b00000000000000000000000000101111 O
#1000
0%
1&
1(
#1500
0(
0)
#2000
0&
1(
#2500
0(
1)
#3000
1(
#3500
0(
#4000
1(
#4500
0(
#5000
1(
#5500
0(
#6000
1(
#6500
0(
#7000
1(
#7500
0(
#8000
1(
#8500
0(
#9000
1(
#9500
0(
#10000
1(
#10500
0(
#11000
1(
#11500
0(
#12000
1(
#12500
0(
#13000
1(
#13500
0(
#14000
1(
#14500
0(
#15000
1(
#15500
b1111110101010100000001000 "
b1100000000001101111 #
b0000011001011 $
0(
b111111111111111111110000 *
1+
b1111101101010100111010001 ,
b1111111 .
b11111111111110000 /
b1111111111110000000000000100000000 0
b1111101101010100111010001 2
b110000000000111111011111100100010000 3
b00000110010101111001101010000001100101100000000 5
b11111011010101001110100001110 7
b11111011010101001110100010110 8
#16000
1%
1(
#16500
0(
b111111111111111111110001 *
b1111101101010100111001111 ,
b11111111111110001 /
b1111111111110001000000000011100001 0
b1111101101010100111001111 2
b110000000000111110111111100101111111 3
b00000110010101111010000011011001011001001101011 5
b11111011010101001110011101110 7
b11111011010101001110011110110 8
#17000
1&
1(
#17500
0(
b111111111111111111110010 *
b1111101101010100111001101 ,
b11111111111110010 /
b1111111111110010000000000011000100 0
b1111101101010100111001101 2
b110000000000111110011111100111101110 3
b00000110010101111010011100110001001101101101100 5
b11111011010101001110011001110 7
b11111011010101001110011010110 8
#18000
1'
1(
1-
#18500
0(
b111111111111111111110011 *
b1111101101010100111001011 ,
b11111111111110011 /
b1111111111110011000000000010101001 0
b1111101101010100111001011 2
b110000000000111101111111101001011101 3
b00000110010101111010110110001001000011000000011 5
b11111011010101001110010101110 7
b11111011010101001110010110110 8
#19000
1(
#19500
0(
b111111111111111111110100 *
b1111101101010100111001001 ,
b11111111111110100 /
b1111111111110100000000000010010000 0
b1111101101010100111001001 2
b110000000000111101011111101011001100 3
b00000110010101111011001111100000111001000110000 5
b11111011010101001110010001110 7
b11111011010101001110010010110 8
#20000
1(
#20500
0(
b111111111111111111110101 *
b1111101101010100111000111 ,
b11111111111110101 /
b1111111111110101000000000001111001 0
b1111101101010100111000111 2
b110000000000111100111111101100111011 3
b00000110010101111011101000111000101111111110011 5
b11111011010101001110001101110 7
b11111011010101001110001110110 8
#21000
1(
#21500
0(
b111111111111111111110110 *
b1111101101010100111000101 ,
b11111111111110110 /
b1111111111110110000000000001100100 0
b1111101101010100111000101 2
b110000000000111100011111101110101010 3
b00000110010101111100000010010000100111101001100 5
b11111011010101001110001001110 7
b11111011010101001110001010110 8
#22000
1(
#22500
0(
b111111111111111111110111 *
b1111101101010100111000011 ,
b11111111111110111 /
b1111111111110111000000000001010001 0
b1111101101010100111000011 2
b110000000000111011111111110000011001 3
b00000110010101111100011011101000100000000111011 5
b11111011010101001110000101110 7
b11111011010101001110000110110 8
#23000
1(
#23500
0(
b111111111111111111111000 *
b1111101101010100111000001 ,
b11111111111111000 /
b1111111111111000000000000001000000 0
b1111101101010100111000001 2
b110000000000111011011111110010001000 3
b00000110010101111100110101000000011001011000000 5
b11111011010101001110000001110 7
b11111011010101001110000010110 8
#24000
1(
#24500
0(
b111111111111111111111001 *
b1111101101010100110111111 ,
b11111111111111001 /
b1111111111111001000000000000110001 0
b1111101101010100110111111 2
b110000000000111010111111110011110111 3
b00000110010101111101001110011000010011011011011 5
b11111011010101001101111101110 7
b11111011010101001101111110110 8
#25000
1(
#25500
0(
b111111111111111111111010 *
b1111101101010100110111101 ,
b11111111111111010 /
b1111111111111010000000000000100100 0
b1111101101010100110111101 2
b110000000000111010011111110101100110 3
b00000110010101111101100111110000001110010001100 5
b11111011010101001101111001110 7
b11111011010101001101111010110 8
#26000
1(
#26500
0(
b111111111111111111111011 *
b1111101101010100110111011 ,
b11111111111111011 /
b1111111111111011000000000000011001 0
b1111101101010100110111011 2
b110000000000111001111111110111010101 3
b00000110010101111110000001001000001001111010011 5
b11111011010101001101110101110 7
b11111011010101001101110110110 8
#27000
1(
#27500
0(
b111111111111111111111100 *
b1111101101010100110111001 ,
b11111111111111100 /
b1111111111111100000000000000010000 0
b1111101101010100110111001 2
b110000000000111001011111111001000100 3
b00000110010101111110011010100000000110010110000 5
b11111011010101001101110001110 7
b11111011010101001101110010110 8
#28000
1(
#28500
0(
b111111111111111111111101 *
b1111101101010100110110111 ,
b11111111111111101 /
b1111111111111101000000000000001001 0
b1111101101010100110110111 2
b110000000000111000111111111010110011 3
b00000110010101111110110011111000000011100100011 5
b11111011010101001101101101110 7
b11111011010101001101101110110 8
#29000
1(
#29500
0(
b111111111111111111111110 *
b1111101101010100110110101 ,
b11111111111111110 /
b1111111111111110000000000000000100 0
b1111101101010100110110101 2
b110000000000111000011111111100100010 3
b00000110010101111111001101010000000001100101100 5
b11111011010101001101101001110 7
b11111011010101001101101010110 8
#30000
1(
#30500
0(
b111111111111111111111111 *
b1111101101010100110110011 ,
b11111111111111111 /
b1111111111111111000000000000000001 0
b1111101101010100110110011 2
b110000000000110111111111111110010001 3
b00000110010101111111100110101000000000011001011 5
b11111011010101001101100101110 7
b11111011010101001101100110110 8
#31000
1(
#31500
b1101001010111110110000110 "
b0010110101000001100 #
b0101100111001 $
0(
b000000000000000000000000 *
0+
b1101001010111110110000110 ,
b0000000 .
b00000000000000000 /
b0000000000000000000000000000000000 0
b1101001010111110110000110 2
b000000000000000000000000000000000000 3
b00000000000000000000000000000000000000000000000 5
b11010010101111101100001100000 7
b11010010101111101100001101000 8
#32000
0%
1(
#32500
0(
#33000
0&
1(
#33500
0(
#34000
0'
1(
0-
